\relax 
\providecommand\hyper@newdestlabel[2]{}
\providecommand\HyperFirstAtBeginDocument{\AtBeginDocument}
\HyperFirstAtBeginDocument{\ifx\hyper@anchor\@undefined
\global\let\oldcontentsline\contentsline
\gdef\contentsline#1#2#3#4{\oldcontentsline{#1}{#2}{#3}}
\global\let\oldnewlabel\newlabel
\gdef\newlabel#1#2{\newlabelxx{#1}#2}
\gdef\newlabelxx#1#2#3#4#5#6{\oldnewlabel{#1}{{#2}{#3}}}
\AtEndDocument{\ifx\hyper@anchor\@undefined
\let\contentsline\oldcontentsline
\let\newlabel\oldnewlabel
\fi}
\fi}
\global\let\hyper@last\relax 
\gdef\HyperFirstAtBeginDocument#1{#1}
\providecommand\HyField@AuxAddToFields[1]{}
\providecommand\HyField@AuxAddToCoFields[2]{}
\bbl@beforestart
\catcode `:\active 
\catcode `;\active 
\catcode `!\active 
\catcode `?\active 
\providecommand\@newglossary[4]{}
\@newglossary{main}{glg}{gls}{glo}
\providecommand\@glsorder[1]{}
\providecommand\@istfilename[1]{}
\@istfilename{main.ist}
\@glsorder{word}
\babel@aux{french}{}
\citation{MANIFESTEAGILE}
\@writefile{toc}{\contentsline {section}{Introduction}{3}{section*.1}\protected@file@percent }
\citation{AgileOverview}
\citation{MANIFESTEAGILE}
\citation{state-agile-report-2018}
\@writefile{toc}{\contentsline {section}{\numberline {1}Objectif et contexte}{4}{section.1}\protected@file@percent }
\@writefile{toc}{\contentsline {subsection}{\numberline {1.1}Agile au service des \IeC {\'e}quipes de d\IeC {\'e}veloppement}{4}{subsection.1.1}\protected@file@percent }
\citation{toAgileOrNotToAgile}
\citation{OWLABS}
\citation{IWG}
\@writefile{toc}{\contentsline {subsection}{\numberline {1.2}La distribution des \IeC {\'e}quipes}{6}{subsection.1.2}\protected@file@percent }
\citation{serrador_does_2015}
\citation{dyba_empirical_2008}
\@writefile{toc}{\contentsline {section}{\numberline {2}\IeC {\'E}tat de l'art}{8}{section.2}\protected@file@percent }
\@writefile{toc}{\contentsline {subsection}{\numberline {2.1}L'efficacit\IeC {\'e} Agile}{8}{subsection.2.1}\protected@file@percent }
\citation{lee_toward_2010}
\citation{gren_group_2017}
\citation{rehman_scrum_2018}
\citation{kumar_impact_2012}
\citation{turk_limitations_nodate}
\@writefile{toc}{\contentsline {subsection}{\numberline {2.2}Les limitations agile}{10}{subsection.2.2}\protected@file@percent }
\citation{solinski_prioritizing_2016}
\citation{state-agile-report-2018}
\citation{distributed_agile_a_review}
\citation{sutherland_distributed_2007}
\citation{calefato_agile_2019}
\citation{fowler_using_nodate}
\citation{candistribbeagile_2006}
\citation{nidiffer_evolving_2005}
\citation{sutherland_distributed_2007}
\citation{calefato_agile_2019}
\citation{nidiffer_evolving_2005}
\citation{sutherland_distributed_2007}
\citation{calefato_agile_2019}
\citation{candistribbeagile_2006}
\citation{BACK2BASICS}
\citation{candistribbeagile_2006}
\citation{nidiffer_evolving_2005}
\citation{calefato_agile_2019}
\@writefile{toc}{\contentsline {subsection}{\numberline {2.3}Probl\IeC {\`e}mes principaux des \IeC {\'e}quipes distribu\IeC {\'e}es}{13}{subsection.2.3}\protected@file@percent }
\@writefile{lot}{\contentsline {table}{\numberline {1}{\ignorespaces Les probl\IeC {\`e}mes principaux \IeC {\`a} l'utilisation des m\IeC {\'e}thodes agile dans les \IeC {\'e}quipes distribu\IeC {\'e}es.\relax }}{13}{table.caption.2}\protected@file@percent }
\providecommand*\caption@xref[2]{\@setref\relax\@undefined{#1}}
\newlabel{table:issues}{{1}{13}{Les problèmes principaux à l'utilisation des méthodes agile dans les équipes distribuées.\relax }{table.caption.2}{}}
\citation{candistribbeagile_2006}
\citation{sutherland_distributed_2007}
\citation{calefato_agile_2019}
\citation{fowler_using_nodate}
\citation{candistribbeagile_2006}
\citation{nidiffer_evolving_2005}
\citation{sutherland_distributed_2007}
\citation{calefato_agile_2019}
\citation{nidiffer_evolving_2005}
\@writefile{toc}{\contentsline {subsubsection}{\numberline {2.3.1}communication}{14}{subsubsection.2.3.1}\protected@file@percent }
\@writefile{toc}{\contentsline {subsubsection}{\numberline {2.3.2}culture}{14}{subsubsection.2.3.2}\protected@file@percent }
\@writefile{toc}{\contentsline {subsubsection}{\numberline {2.3.3}technique et int\IeC {\'e}gration}{14}{subsubsection.2.3.3}\protected@file@percent }
\@writefile{toc}{\contentsline {subsubsection}{\numberline {2.3.4}gestion de l'information et backlog}{14}{subsubsection.2.3.4}\protected@file@percent }
\citation{candistribbeagile_2006}
\citation{nidiffer_evolving_2005}
\citation{candistribbeagile_2006}
\citation{calefato_agile_2019}
\citation{sutherland_distributed_2007}
\@writefile{toc}{\contentsline {subsubsection}{\numberline {2.3.5}processus et cycle de vie}{15}{subsubsection.2.3.5}\protected@file@percent }
\@writefile{toc}{\contentsline {subsubsection}{\numberline {2.3.6}environnement de travail}{15}{subsubsection.2.3.6}\protected@file@percent }
\@writefile{toc}{\contentsline {subsection}{\numberline {2.4}Solutions}{15}{subsection.2.4}\protected@file@percent }
\@writefile{toc}{\contentsline {subsubsection}{\numberline {2.4.1}types d'\IeC {\'e}quipe}{15}{subsubsection.2.4.1}\protected@file@percent }
\citation{miller_distributed_2008}
\citation{sutherland_distributed_2007}
\citation{candistribbeagile_2006}
\citation{fowler_using_nodate}
\citation{BACK2BASICS}
\citation{miller_distributed_2008}
\citation{calefato_agile_2019}
\@writefile{toc}{\contentsline {subsubsection}{\numberline {2.4.2}sprints}{17}{subsubsection.2.4.2}\protected@file@percent }
\@writefile{toc}{\contentsline {subsubsection}{\numberline {2.4.3}backlog}{17}{subsubsection.2.4.3}\protected@file@percent }
\@writefile{toc}{\contentsline {subsubsection}{\numberline {2.4.4}les outils}{17}{subsubsection.2.4.4}\protected@file@percent }
\citation{calefato_agile_2019}
\citation{BACK2BASICS}
\citation{miller_distributed_2008}
\citation{fowler_using_nodate}
\citation{candistribbeagile_2006}
\citation{miller_distributed_2008}
\@writefile{toc}{\contentsline {subsubsection}{\numberline {2.4.5}maintenir la qualit\IeC {\'e}}{19}{subsubsection.2.4.5}\protected@file@percent }
\@writefile{toc}{\contentsline {subsubsection}{\numberline {2.4.6}am\IeC {\'e}liorer la communication}{19}{subsubsection.2.4.6}\protected@file@percent }
\@writefile{toc}{\contentsline {subsubsection}{\numberline {2.4.7}am\IeC {\'e}lioration it\IeC {\'e}rative}{20}{subsubsection.2.4.7}\protected@file@percent }
\@writefile{toc}{\contentsline {section}{\numberline {3}Analyse et comparaison}{20}{section.3}\protected@file@percent }
\@writefile{toc}{\contentsline {subsection}{\numberline {3.1}Discussion}{20}{subsection.3.1}\protected@file@percent }
\@writefile{toc}{\contentsline {subsubsection}{\numberline {3.1.1}apprentissages}{20}{subsubsection.3.1.1}\protected@file@percent }
\citation{serrador_does_2015}
\citation{dyba_empirical_2008}
\@writefile{toc}{\contentsline {subsubsection}{\numberline {3.1.2}critiques}{21}{subsubsection.3.1.2}\protected@file@percent }
\citation{turk_limitations_nodate}
\citation{calefato_agile_2019}
\citation{MANIFESTEAGILE}
\@writefile{toc}{\contentsline {subsection}{\numberline {3.2}Agile distribu\IeC {\'e} reste-t-il agile ?}{22}{subsection.3.2}\protected@file@percent }
\citation{alliance_principles}
\@writefile{toc}{\contentsline {subsection}{\numberline {3.3}Points d'am\IeC {\'e}lioration}{23}{subsection.3.3}\protected@file@percent }
\@writefile{toc}{\contentsline {section}{\numberline {4}Applications chez Air France - KLM}{24}{section.4}\protected@file@percent }
\@writefile{toc}{\contentsline {subsection}{\numberline {4.1}G\IeC {\'e}n\IeC {\'e}ral}{24}{subsection.4.1}\protected@file@percent }
\@writefile{toc}{\contentsline {subsection}{\numberline {4.2}Gestion de la crise}{25}{subsection.4.2}\protected@file@percent }
\citation{OWLABS}
\@writefile{toc}{\contentsline {subsection}{\numberline {4.3}Am\IeC {\'e}liorer les processus dans le groupe}{26}{subsection.4.3}\protected@file@percent }
\@writefile{toc}{\contentsline {section}{Conclusion}{28}{section*.3}\protected@file@percent }
\@writefile{toc}{\contentsline {section}{Table des figures}{29}{section*.4}\protected@file@percent }
\@writefile{toc}{\contentsline {section}{Glossaire}{31}{section*.6}\protected@file@percent }
\bibstyle{IEEEtran}
\bibdata{sources}
\bibcite{MANIFESTEAGILE}{1}
\bibcite{AgileOverview}{2}
\bibcite{state-agile-report-2018}{3}
\bibcite{toAgileOrNotToAgile}{4}
\bibcite{OWLABS}{5}
\bibcite{IWG}{6}
\bibcite{serrador_does_2015}{7}
\bibcite{dyba_empirical_2008}{8}
\bibcite{lee_toward_2010}{9}
\bibcite{gren_group_2017}{10}
\bibcite{rehman_scrum_2018}{11}
\bibcite{kumar_impact_2012}{12}
\@writefile{toc}{\contentsline {section}{R\IeC {\'e}f\IeC {\'e}rences}{32}{section*.7}\protected@file@percent }
\bibcite{turk_limitations_nodate}{13}
\bibcite{solinski_prioritizing_2016}{14}
\bibcite{distributed_agile_a_review}{15}
\bibcite{sutherland_distributed_2007}{16}
\bibcite{calefato_agile_2019}{17}
\bibcite{fowler_using_nodate}{18}
\bibcite{candistribbeagile_2006}{19}
\bibcite{nidiffer_evolving_2005}{20}
\bibcite{BACK2BASICS}{21}
\bibcite{miller_distributed_2008}{22}
\bibcite{alliance_principles}{23}
