\relax 
\providecommand\hyper@newdestlabel[2]{}
\providecommand\HyperFirstAtBeginDocument{\AtBeginDocument}
\HyperFirstAtBeginDocument{\ifx\hyper@anchor\@undefined
\global\let\oldcontentsline\contentsline
\gdef\contentsline#1#2#3#4{\oldcontentsline{#1}{#2}{#3}}
\global\let\oldnewlabel\newlabel
\gdef\newlabel#1#2{\newlabelxx{#1}#2}
\gdef\newlabelxx#1#2#3#4#5#6{\oldnewlabel{#1}{{#2}{#3}}}
\AtEndDocument{\ifx\hyper@anchor\@undefined
\let\contentsline\oldcontentsline
\let\newlabel\oldnewlabel
\fi}
\fi}
\global\let\hyper@last\relax 
\gdef\HyperFirstAtBeginDocument#1{#1}
\providecommand\HyField@AuxAddToFields[1]{}
\providecommand\HyField@AuxAddToCoFields[2]{}
\bbl@beforestart
\catcode `:\active 
\catcode `;\active 
\catcode `!\active 
\catcode `?\active 
\providecommand\@newglossary[4]{}
\@newglossary{main}{glg}{gls}{glo}
\providecommand\@glsorder[1]{}
\providecommand\@istfilename[1]{}
\@istfilename{main.ist}
\@glsorder{word}
\babel@aux{french}{}
\citation{noauthor_2019_nodate}
\citation{shrivastava_distributed_nodate}
\citation{noauthor_manifesto_nodate}
\citation{miller_distributed_nodate}
\citation{berczuk_back_2007}
\citation{sutherland_distributed_2007}
\citation{ramesh2006}
\@writefile{toc}{\contentsline {section}{Introduction}{1}{Doc-Start}\protected@file@percent }
\bibstyle{IEEEtran}
\bibdata{sources}
\bibcite{noauthor_2019_nodate}{1}
\bibcite{shrivastava_distributed_nodate}{2}
\bibcite{noauthor_manifesto_nodate}{3}
\bibcite{miller_distributed_nodate}{4}
\bibcite{berczuk_back_2007}{5}
\bibcite{sutherland_distributed_2007}{6}
\bibcite{ramesh2006}{7}
\@writefile{toc}{\contentsline {section}{R\IeC {\'e}f\IeC {\'e}rences}{2}{Doc-Start}\protected@file@percent }
