% Generated by IEEEtran.bst, version: 1.14 (2015/08/26)
\begin{thebibliography}{1}
\providecommand{\url}[1]{#1}
\csname url@samestyle\endcsname
\providecommand{\newblock}{\relax}
\providecommand{\bibinfo}[2]{#2}
\providecommand{\BIBentrySTDinterwordspacing}{\spaceskip=0pt\relax}
\providecommand{\BIBentryALTinterwordstretchfactor}{4}
\providecommand{\BIBentryALTinterwordspacing}{\spaceskip=\fontdimen2\font plus
\BIBentryALTinterwordstretchfactor\fontdimen3\font minus
  \fontdimen4\font\relax}
\providecommand{\BIBforeignlanguage}[2]{{%
\expandafter\ifx\csname l@#1\endcsname\relax
\typeout{** WARNING: IEEEtran.bst: No hyphenation pattern has been}%
\typeout{** loaded for the language `#1'. Using the pattern for}%
\typeout{** the default language instead.}%
\else
\language=\csname l@#1\endcsname
\fi
#2}}
\providecommand{\BIBdecl}{\relax}
\BIBdecl

\bibitem{noauthor_2019_nodate}
\BIBentryALTinterwordspacing
``\BIBforeignlanguage{en}{2019 {State} of {Remote} {Work} {Report}},'' library
  Catalog: www.owllabs.com. [Online]. Available:
  \url{https://www.owllabs.com/state-of-remote-work/2019}
\BIBentrySTDinterwordspacing

\bibitem{shrivastava_distributed_nodate}
S.~V. Shrivastava and H.~Date, ``\BIBforeignlanguage{en}{Distributed {Agile}
  {Software} {Development}: {A} {Review}}.''

\bibitem{noauthor_manifesto_nodate}
\BIBentryALTinterwordspacing
``Manifesto for {Agile} {Software} {Development}.'' [Online]. Available:
  \url{https://agilemanifesto.org/}
\BIBentrySTDinterwordspacing

\bibitem{miller_distributed_nodate}
A.~Miller, ``\BIBforeignlanguage{en}{Distributed {Agile} {Development}},''
  October 2008.

\bibitem{berczuk_back_2007}
\BIBentryALTinterwordspacing
S.~Berczuk, ``\BIBforeignlanguage{en}{Back to {Basics}: {The} {Role} of {Agile}
  {Principles} in {Success} with an {Distributed} {Scrum} {Team}},'' in
  \emph{\BIBforeignlanguage{en}{{AGILE} 2007 ({AGILE} 2007)}}.\hskip 1em plus
  0.5em minus 0.4em\relax Washington, DC, USA: IEEE, Aug. 2007. [Online].
  Available: \url{http://ieeexplore.ieee.org/document/4293626/}
\BIBentrySTDinterwordspacing

\bibitem{sutherland_distributed_2007}
\BIBentryALTinterwordspacing
J.~Sutherland, A.~Viktorov, J.~Blount, and N.~Puntikov,
  ``\BIBforeignlanguage{en}{Distributed {Scrum}: {Agile} {Project} {Management}
  with {Outsourced} {Development} {Teams}},'' in
  \emph{\BIBforeignlanguage{en}{2007 40th {Annual} {Hawaii} {International}
  {Conference} on {System} {Sciences} ({HICSS}'07)}}.\hskip 1em plus 0.5em
  minus 0.4em\relax Waikoloa, HI, USA: IEEE, 2007. [Online]. Available:
  \url{http://ieeexplore.ieee.org/document/4076936/}
\BIBentrySTDinterwordspacing

\bibitem{ramesh2006}
B.~Ramesh, L.~Cao, K.~Mohan, and P.~Xu, ``Can distributed software development
  be agile?'' \emph{Commun. ACM}, vol.~49, pp. 41--46, 10 2006.

\end{thebibliography}
