\babel@toc {french}{}
\contentsline {section}{Introduction}{}{Doc-Start}% 
\contentsline {section}{\numberline {1}Objectif et contexte}{}{section.1}% 
\contentsline {section}{\numberline {2}\IeC {\'E}tat de l'art}{}{section.2}% 
\contentsline {section}{Conclusion}{}{figure.1}% 
\contentsline {section}{Table des figures}{}{figure.1}% 
\contentsline {section}{Glossaire}{}{section*.2}% 
\contentsline {section}{R\IeC {\'e}f\IeC {\'e}rences}{}{section*.2}% 
\contentsline {section}{Annexes}{}{section*.2}% 
